[npc]
NULL
down
0
1
1
NULL
0
-1
0
false
true
false
[/npc]
[npc]
NULL
down
0
4
1
NULL
0
-1
1,2,3,4,5
false
false
false
[/npc]
[npc]
NULL
down
0
7
6
NULL
0
-1
9
false
false
false
[/npc]
[npc]
NULL
down
0
11
6
NULL
0
-1
10
false
false
false
[/npc]
[npc]
Receptionist
up
328
7
7
NULL
0
-1
11
false
false
false
[/npc]
[npc]
Receptionist
up
328
11
7
NULL
0
-1
11
false
false
false
[/npc]
[npc]
Radio Tower Visitor
right
373
16
5
NULL
0
-1
12,13
false
false
false
[/npc]
[npc]
Radio Tower Visitor
left
374
17
5
NULL
0
-1
14,15
false
false
false
[/npc]
[warp]
2
9
5
16
-5
0
0
[/warp]
[warp]
3
9
5
16
-5
0
0
[/warp]
[warp]
15
1
16
2
-31
-42
0
[/warp]
