[npc]
NULL
down
0
10
31
NULL
0
-1
0,1,2
false
false
false
[/npc]
[npc]
NULL
down
0
16
25
NULL
0
-1
3
false
false
false
[/npc]
[npc]
NULL
down
0
20
25
NULL
0
-1
4
false
false
false
[/npc]
[npc]
NULL
down
0
2
12
NULL
0
-1
5,6,7
false
false
false
[/npc]
[npc]
NULL
down
0
38
11
NULL
0
-1
8,9
false
false
false
[/npc]
[warp]
7
31
27
43
-35
-35
0
[/warp]
[warp]
22
25
6
13
-36
-36
0
[/warp]
[warp]
29
25
5
7
-49
-34
0
[/warp]
[warp]
22
31
15
16
-49
-35
0
[/warp]
[warp]
5
6
7
15
-43
-43
0
[/warp]
[warp]
20
13
4
17
-31
-46
0
[/warp]
[warp]
14
31
4
8
-31
-49
0
[/warp]
[warp]
6
25
4
8
-31
-50
0
[/warp]
[warp]
22
3
8
4
-31
-48
0
[/warp]
[warp]
36
6
12
18
-33
-39
0
[/warp]
