[warp]
28
32
40
50
31
20
0
[/warp]
[warp]
27
32
40
50
31
20
0
[/warp]
[warp]
13
20
10
43
-42
7
0
[/warp]
[warp]
14
20
10
43
-42
7
0
[/warp]
[warp]
20
16
15
19
-41
6
0
[/warp]


