[npc]
Norman
down
155
40
8
vigoroth,50,Slaking,50,Spinda,50,Linoone,50
4
20
0
false
false
false
[/npc]
[warp]
40
100
15
8
23
23
0
[/warp]
[warp]
41
100
15
8
23
23
0
[/warp]
[warp]
43
94
48
79
-45
47
0
[/warp]
[warp]
48
80
43
95
-45
47
0
[/warp]
[warp]
49
80
43
95
-45
47
0
[/warp]
[warp]
37
94
33
79
-45
47
0
[/warp]
[warp]
33
80
37
95
-45
47
0
[/warp]
[warp]
32
80
37
95
-45
47
0
[/warp]
[warp]
33
73
37
58
-45
47
0
[/warp]
[warp]
37
59
33
74
-45
47
0
[/warp]
[warp]
38
59
33
74
-45
47
0
[/warp]
[warp]
27
73
32
58
-45
47
0
[/warp]
[warp]
32
59
27
74
-45
47
0
[/warp]
[warp]
31
59
27
74
-45
47
0
[/warp]
[warp]
43
52
48
37
-45
47
0
[/warp]
[warp]
48
38
43
53
-45
47
0
[/warp]
[warp]
49
38
43
53
-45
47
0
[/warp]
[warp]
43
14
48
32
-45
47
0
[/warp]
[warp]
42
14
48
32
-45
47
0
[/warp]
[warp]
48
31
43
13
-45
47
0
[/warp]
[warp]
37
14
32
32
-45
47
0
[/warp]
[warp]
38
14
32
32
-45
47
0
[/warp]
[warp]
32
31
37
13
-45
47
0
[/warp]
[warp]
32
38
37
53
-45
47
0
[/warp]
[warp]
31
38
37
53
-45
47
0
[/warp]
[warp]
37
52
32
37
-45
47
0
[/warp]
[warp]
32
52
26
37
-45
47
0
[/warp]
[warp]
26
38
32
53
-45
47
0
[/warp]
[warp]
27
38
32
53
-45
47
0
[/warp]
[warp]
48
73
43
58
-45
47
0
[/warp]
[warp]
43
59
48
74
-45
47
0
[/warp]
[warp]
42
59
48
74
-45
47
0
[/warp]
[warp]
54
73
48
58
-45
47
0
[/warp]
[warp]
48
59
54
74
-45
47
0
[/warp]
[warp]
48
59
54
74
-45
47
0
[/warp]
[warp]
48
52
54
37
-45
47
0
[/warp]
[warp]
53
38
48
53
-45
47
0
[/warp]
[warp]
54
38
48
53
-45
47
0
[/warp]