[npc]
Battlefrontier - battledome lady - lvl 50
down
327
6
9
NULL
0
-1
1
false
false
false
[/npc]
[npc]
Battlefrontier - battledome lady - any lvl
down
327
18
9
NULL
0
-1
1
false
false
false
[/npc]
[npc]
NULL
down
0
12
8
NULL
0
-1
2
false
true
false
[/npc]
[warp]
12
16
21
18
29
26
0
[/warp]
[warp]
13
16
21
18
29
26
0
[/warp]