[warp]
41
27
39
2
39
-50
0
[/warp]
[warp]
41
26
39
3
39
-50
0
[/warp]
[warp]
29
56
12
14
-41
-32
0
[/warp]
[warp]
14
56
13
12
-41
-25
0
[/warp]
[warp]
24
76
13
12
-41
-26
0
[/warp]
[warp]
35
75
13
12
-36
-48
0
[/warp]
[warp]
40
46
13
12
-35
-48
0
[/warp]



